<svg xmlns="http://www.w3.org/2000/svg" width="22" height="22" viewBox="0 0 22 22">
  <g id="page" transform="translate(-1 -1)">
    <path id="Path_2286" data-name="Path 2286" d="M19,18V2a1,1,0,0,0-1-1H2A1,1,0,0,0,1,2V18a1,1,0,0,0,1,1H18A1,1,0,0,0,19,18Zm-2-1H3V3H17Z" fill="#fff"/>
    <path id="Path_2287" data-name="Path 2287" d="M22,5H20V7h1V21H7V20H5v2a1,1,0,0,0,1,1H22a1,1,0,0,0,1-1V6A1,1,0,0,0,22,5Z" fill="#fff"/>
    <path id="Path_2288" data-name="Path 2288" d="M9,14.429h2V11h3.429V9H11V5.571H9V9H5.571v2H9Z" fill="#fff"/>
  </g>
</svg>
