<svg xmlns="http://www.w3.org/2000/svg" width="18.282" height="22.816" viewBox="0 0 18.282 22.816">
  <g id="pause" transform="translate(-4.729)">
    <path id="Path_2481" data-name="Path 2481" d="M11.085,19.638a3.178,3.178,0,0,1-3.178,3.178h0a3.178,3.178,0,0,1-3.178-3.178V3.178A3.178,3.178,0,0,1,7.907,0h0a3.178,3.178,0,0,1,3.178,3.178Z" transform="translate(0 0)" fill="#505050"/>
    <path id="Path_2482" data-name="Path 2482" d="M35.971,19.638a3.178,3.178,0,0,1-3.178,3.178h0a3.178,3.178,0,0,1-3.178-3.178V3.178A3.179,3.179,0,0,1,32.793,0h0a3.178,3.178,0,0,1,3.178,3.178Z" transform="translate(-12.959 0)" fill="#505050"/>
  </g>
</svg>
