<svg xmlns="http://www.w3.org/2000/svg" xmlns:xlink="http://www.w3.org/1999/xlink" width="21" height="21" viewBox="0 0 21 21">
  <defs>
    <style>
      .cls-1 {
        fill: #fff;
      }

      .cls-2 {
        filter: url(#Ellipse_20);
      }
    </style>
    <filter id="Ellipse_20" x="0" y="0" width="21" height="21" filterUnits="userSpaceOnUse">
      <feOffset input="SourceAlpha"/>
      <feGaussianBlur stdDeviation="0.5" result="blur"/>
      <feFlood flood-opacity="0.729"/>
      <feComposite operator="in" in2="blur"/>
      <feComposite in="SourceGraphic"/>
    </filter>
  </defs>
  <g id="Component_75_5" data-name="Component 75 – 5" transform="translate(1.5 1.5)">
    <g class="cls-2" transform="matrix(1, 0, 0, 1, -1.5, -1.5)">
      <circle id="Ellipse_20-2" data-name="Ellipse 20" class="cls-1" cx="9" cy="9" r="9" transform="translate(1.5 1.5)"/>
    </g>
    <g id="Group_1518" data-name="Group 1518" transform="translate(-2050.399 16503.207)">
      <g id="Group_1515" data-name="Group 1515" transform="translate(2055 -16497.207)">
        <g id="Group_1514" data-name="Group 1514" transform="translate(0)">
          <path id="Path_2264" data-name="Path 2264" d="M32.022,246.748H30.849a.293.293,0,0,1-.293-.293v-4.693a.293.293,0,0,1,.293-.293h1.173a.293.293,0,0,1,.293.293v4.693A.293.293,0,0,1,32.022,246.748Z" transform="translate(-30.556 -241.468)"/>
        </g>
      </g>
      <g id="Group_1517" data-name="Group 1517" transform="translate(2057.346 -16497.207)">
        <g id="Group_1516" data-name="Group 1516" transform="translate(0)">
          <path id="Path_2265" data-name="Path 2265" d="M157.241,95.674a.922.922,0,0,1-.935.778h-2.287a5.065,5.065,0,0,1,.294,1.734,1.221,1.221,0,0,1-1.224,1.2h-.242a.293.293,0,0,1-.293-.293,4.1,4.1,0,0,0-.762-2.4,3.249,3.249,0,0,0-1-.645v-4.4a6.851,6.851,0,0,1,2.419-.473h1.919a.892.892,0,0,1,.88,1.2.88.88,0,0,1,.587,1.173.88.88,0,0,1,.424,1.436A.878.878,0,0,1,157.241,95.674Z" transform="translate(-150.794 -91.172)"/>
        </g>
      </g>
    </g>
  </g>
</svg>
