<svg xmlns="http://www.w3.org/2000/svg" width="56" height="24" viewBox="0 0 56 24">
  <g id="Group_1757" data-name="Group 1757" transform="translate(-1690 -601)">
    <rect id="Rectangle_959" data-name="Rectangle 959" width="56" height="24" rx="12" transform="translate(1690 601)" fill="#545454"/>
    <circle id="Ellipse_77" data-name="Ellipse 77" cx="9" cy="9" r="9" transform="translate(1723 604)" fill="#f9f9f9"/>
    <text id="ON" transform="translate(1697 618)" fill="#f9f9f9" font-size="12" font-family="Lato-Bold, Lato" font-weight="700" letter-spacing="0.01em"><tspan x="0" y="0">ON</tspan></text>
  </g>
</svg>
